7829
4267
-1
3070
-1
3055
2272
3299
9162
6291
891
2137
7595
9216
3676
8763
5066
330
7073
2002
4143
1823
3622
-1
2716
7879
8621
7283
4278
5629
2199
7561
2184
1150
6778
395
7120
7492
5423
2695
-1
294
7486
1390
5125
4981
2778
-1
4656
3808
8766
-1
996
4070
8376
3006
3032
-1
-1
6681
4814
4447
7392
6110
4928
8950
261
2776
2515
2087
5208
2287
3266
4735
5894
-1
7638
540
6252
751
1725
137
2996
-1
7117
5509
526
5255
7986
4180
-1
3823
3199
3405
9010
1788
4222
2678
-1
3303
9024
7224
-1
3871
4938
6237
8414
2877
2720
2702
5727
241
4915
2229
2213
1351
2183
6002
2965
3226
5563
7188
6110
8826
116
6659
3930
2071
1109
-1
6658
3527
7294
-1
-1
7486
665
3212
5446
3460
6202
471
8997
5100
1601
6523
9052
8135
7845
415
4626
7478
728
5652
6383
2107
3881
924
6215
7195
1440
3630
2153
2192
7666
1425
4965
6431
5731
1192
9015
4875
985
1109
3448
6623
9137
6763
-1
1141
3261
-1
6974
-1
4081
8961
-1
2499
8362
8623
3398
2474
6311
8435
3691
3412
8140
5741
8129
4635
6250
5901
1063
5567
3574
942
5115
4314
3975
-1
869
892
5091
7338
1084
2584
8815
4913
5827
4626
7015
1752
2600
664
3379
2624
3005
-1
8378
-1
-1
4018
2026
2636
2936
2458
525
2445
1923
2278
2683
3304
1031
1689
5016
8041
1924
406
-1
4077
-1
4022
-1
5239
4636
4116
8202
-1
6745
411
5995
2089
2366
6889
4398
1414
1200
2895
-1
5890
7343
7561
8430
7003
429
-1
8111
-1
2872
3570
8776
-1
224
5827
5882
1079
5668
5782
-1
5131
5516
4663
5733
5120
-1
7197
4178
8208
3682
8968
577
7107
9062
522
2016
1424
-1
4973
6022
7356
4731
8020
5988
7243
4598
8210
8194
4019
7584
8668
548
8091
-1
7661
4707
1761
6536
2764
652
3059
9125
-1
7836
395
3448
963
2507
2152
4766
5994
596
3109
6626
4706
4944
5420
7931
-1
6972
9033
6881
3089
5214
8830
2940
5050
8178
6148
2103
964
7678
60
6997
410
5300
3107
2706
7606
5090
8572
5120
33
6481
3451
8193
2989
168
8324
8986
8147
-1
4668
4453
4667
8875
5649
-1
3527
7586
8775
7356
2213
7566
7375
5602
3371
8744
9010
1530
3014
4768
1779
-1
8004
1754
564
6141
3700
-1
-1
4600
66
472
7269
6526
1877
8021
-1
6020
8437
6359
3049
545
7876
5253
6157
4411
3437
7115
3280
4830
655
4411
5813
4014
2713
4402
6636
5152
8986
8844
5905
-1
424
5302
697
6700
1400
8372
3324
-1
2103
2013
1455
825
7786
5167
9011
2851
8397
3053
2848
3932
-1
4084
120
4991
8507
7093
4560
1657
5007
691
4746
769
1940
4608
3399
1281
-1
2515
3122
2471
8462
2318
2755
8036
4402
479
8891
3548
-1
1255
9069
6364
4023
6339
145
5850
-1
5341
8241
1945
3283
-1
5659
6586
1626
5941
5572
5910
7404
4422
6830
350
2458
4278
8673
2640
4156
3269
1034
2759
6125
8007
-1
4740
6541
950
4499
310
7062
6243
7771
8532
6934
4863
3820
-1
-1
400
1302
7331
3181
628
4866
8452
1729
150
4287
7782
8641
3577
3485
6821
1327
7894
4506
5914
6328
2545
4609
1363
9070
153
7113
3825
3098
493
5141
6654
1917
2323
-1
1505
942
8043
8383
3593
698
1918
-1
5180
1034
7618
4902
8068
2647
9165
8821
2638
7759
171
1390
6495
5087
7031
7977
8768
451
1911
7283
3431
3777
3790
7603
2535
401
415
7144
1014
844
1140
2265
1264
3692
6606
2899
7624
25
-1
1093
5123
764
4751
4330
4488
4486
5329
1076
6644
8736
-1
8297
1691
2148
8050
7984
5180
4886
3012
5354
4280
5915
8542
7647
8833
2163
8861
411
5360
1297
1708
-1
5404
3860
4830
3050
8291
2789
4135
5017
7501
8743
1790
4076
4341
4440
5754
-1
4657
732
3611
4796
6520
6502
2168
1824
2731
-1
787
7150
6163
7797
6568
5516
139
33
1886
8992
3236
8243
4616
7813
3688
1207
4319
-1
4685
6661
2841
6033
8412
3247
6448
6567
6643
7908
-1
3740
5052
8250
5759
1270
7129
4770
1397
7537
2911
2105
-1
736
6058
2336
-1
6367
6306
5047
1853
-1
8380
7960
-1
-1
1212
3728
5899
6114
1605
2627
7269
1788
28
2631
4054
877
1636
3837
7948
451
2101
7323
4422
4969
5221
905
6286
3739
8111
4173
497
5298
111
4006
7000
3160
2865
4371
5873
-1
7831
3630
5235
644
5894
3538
5894
2107
8056
8362
3235
5922
2997
-1
1450
6618
2425
5102
6770
7618
2852
2855
1380
6311
1153
5269
8815
5466
4263
8309
233
735
7977
6326
8954
3988
5624
8041
2341
8041
1538
3987
4065
8834
757
3484
4770
2324
2195
6464
9087
7804
2398
7128
3797
1204
1131
159
3622
-1
5037
1302
8362
5473
6400
3520
6581
1324
978
1547
7873
2295
409
9169
-1
8923
8835
8228
1360
4094
-1
3163
8088
7178
-1
133
-1
2040
8225
2479
2027
3288
4921
2971
-1
3320
8943
8265
489
3874
4242
4344
456
8915
5305
-1
9111
7633
551
6138
802
6466
5544
9141
8890
4641
8417
355
4842
407
2937
2855
7399
7192
8277
3589
723
865
8144
1099
3743
6291
2930
239
2341
7348
5813
4611
-1
4758
4360
8658
-1
4688
8992
5046
5379
1007
6707
2501
4635
1127
4972
4672
477
7504
5760
1169
9088
573
6515
1115
7518
-1
3848
730
6712
6741
7555
8993
6906
609
-1
7023
5200
4795
4584
7732
1347
2076
8484
3754
7636
4286
5050
2818
7494
6267
1932
3011
6943
1417
6448
8427
6684
8250
-1
5838
4821
1249
2345
5034
8486
8165
746
6416
6441
7792
-1
6693
7672
4273
790
4215
-1
717
2731
7994
722
2010
3300
1226
7836
8243
-1
8664
1899
6672
4986
7467
8671
6362
2528
4374
6220
647
4056
3470
303
3035
7079
8333
1277
3514
2841
1797
3036
3671
2865
5336
499
2077
9139
5305
8202
230
4702
7161
4841
6772
8835
3020
6641
7186
6646
4374
4982
1880
8004
2776
8959
5664
6216
-1
6870
5556
5563
3523
3398
4895
2992
5770
8063
7847
8150
3161
5289
8263
886
2674
2348
1397
7292
1191
6047
2295
8240
1410
7871
3192
2776
2948
5807
4325
1205
327
5055
7744
7710
422
3084
5664
5154
3965
3563
9085
684
8814
-1
5629
1910
852
5437
3763
6116
1367
8808
4269
3660
530
2099
2918
8122
463
7138
2438
3527
3784
9071
6056
6523
7357
-1
8967
4957
1169
3365
1992
2525
4565
4884
4942
-1
3366
4482
5332
4216
5731
8926
3545
7562
6778
7039
391
2632
5559
1933
3811
2375
8510
8755
1331
3887
2285
7975
7251
1946
5891
371
7548
5390
377
3399
5329
4060
7217
6231
4249
6292
1995
6835
7181
6889
2208
3899
1920
5501
8625
6009
8516
6211
7206
-1
3972
6618
6533
2155
6891
1988
3052
6454
364
8528
-1
6636
8022
8322
1273
213
8818
6990
4529
4451
1750
4861
5696
4416
4488
5748
7248
7587
5803
6266
4601
5897
240
976
978
4357
6749
116
942
6575
4813
5876
7508
675
5393
7746
2230
1440
4528
7620
1058
8322
3199
8410
1120
1911
1340
1937
1799
4848
8076
4757
796
7520
364
8255
2654
46
1247
1672
3271
4571
6753
96
8241
1281
2571
6981
145
3839
5640
1486
487
5423
885
5489
1847
-1
2632
8954
-1
-1
2922
3206
8378
8013
7731
4195
7705
917
3842
4801
103
5523
8045
5225
7775
-1
7361
3816
7026
7885
1815
8340
4439
5850
494
7701
9081
5582
-1
5349
3288
3309
3187
7834
9187
4965
216
4141
8759
4344
5017
4065
8365
1576
4402
3120
4870
8821
5205
7307
1927
4510
4690
8270
5580
7676
8947
6703
-1
6868
4548
881
6348
6009
5857
4689
5153
5035
8608
3417
1106
1150
3415
3667
8420
725
3010
635
7496
3790
1086
7207
3548
7708
4202
2942
2362
13
7358
5440
-1
2962
2797
-1
1558
2742
2930
4571
788
7882
7197
6006
4405
3244
6628
4149
5570
7520
4841
8834
-1
8792
7624
9051
-1
6157
6075
1941
4082
521
9109
4979
2863
8733
5910
1637
5788
2127
-1
177
-1
1068
8810
3740
2845
6263
5248
674
6501
7453
3444
717
1502
-1
6160
7520
4205
5097
4947
4663
993
7665
6542
-1
8650
858
7638
-1
4676
6947
6514
-1
7680
4067
8634
8378
7145
2604
2821
2754
1225
5295
3000
998
8069
4051
8909
-1
9050
669
231
2031
1129
2599
7388
1812
7747
784
1356
4326
1908
3305
-1
5250
8164
4058
5007
8033
4725
2855
5
224
2063
8635
2490
-1
3567
6479
8130
7144
8369
2069
-1
4088
2899
7104
1864
7806
-1
1175
249
4709
6279
5689
1227
-1
7123
-1
8916
1633
6837
8833
8286
6170
8072
1162
4932
2329
8490
4764
-1
5758
2589
3117
598
1540
2461
7232
5499
6470
3211
1486
2102
5047
5037
796
5789
8984
6933
-1
9171
6914
3708
8458
2912
2128
31
2987
1527
814
5628
-1
1468
6617
9195
4693
2242
4393
8270
7315
6461
-1
6493
2234
1896
4086
3933
-1
261
5340
3397
6196
6392
8697
1804
1100
-1
537
667
422
5919
7159
7178
2407
-1
1451
7568
8000
7245
8133
5813
357
2824
1200
7793
6925
5517
6062
2769
3797
7927
8459
6343
-1
1880
-1
-1
1897
7666
7037
5909
802
5230
-1
1333
2797
2686
3470
-1
7165
9100
7283
6072
7960
3005
6940
7479
8713
3492
3
543
-1
4954
5959
83
-1
4673
3063
8724
4100
7701
2974
5368
1468
3973
874
1047
665
1830
8408
4664
1479
8639
889
7669
7899
4103
1824
5592
4560
1503
1073
7670
1882
-1
1598
4330
4884
-1
9019
124
5973
3138
7092
-1
6186
1910
8662
5876
4590
7323
6213
6350
5376
5487
661
2848
-1
-1
4587
5133
2785
8495
4760
675
6863
7588
6811
8203
4672
5255
561
4870
262
8385
2305
6821
577
2444
4243
2955
6132
829
5428
5504
2195
-1
-1
4006
6796
6328
6362
156
4842
8740
5115
1536
3624
-1
2707
7125
641
2875
5679
2566
2121
3020
3858
4971
6493
3703
1518
8306
7633
482
3856
-1
3248
626
2105
8363
8497
5722
1452
8229
3119
8574
3293
6171
8864
2831
6284
6735
2584
5649
-1
4814
9215
2901
9091
4321
7364
71
2478
8820
3959
4425
1362
4580
7139
2915
2443
4176
8551
729
6285
2609
7361
6968
2003
6988
4456
5860
1162
6128
2872
8627
2143
-1
104
5160
1199
3315
7839
2148
2587
2719
3624
7955
9011
1981
2631
6675
2052
5356
7020
3298
3936
2319
5494
4594
-1
8134
6899
-1
6499
5973
-1
3647
6681
7092
3165
8764
7125
1858
1286
2542
-1
6309
1068
4027
2666
6218
2080
8200
4423
5724
5147
4029
1368
6925
7839
1489
2975
7887
3473
1138
3840
4138
8855
880
6028
7894
-1
3282
9105
4391
-1
1213
8340
2953
1550
6756
3559
7944
2998
4468
4033
1459
2329
1674
1475
7061
7147
2461
7416
6558
748
-1
1038
7867
3390
1897
2589
978
9154
4600
2471
-1
109
6214
1169
8056
5969
8892
5620
3321
1626
3547
8459
6155
2192
1039
2681
8718
340
6284
7994
8758
8572
7627
6017
4571
6900
7323
1991
8722
1820
2391
5228
3585
6694
8116
7221
5118
6486
9139
5470
7024
5511
2825
6312
6284
7856
4576
8619
3205
3151
6646
6292
4373
5867
8153
4941
1371
8
6850
1124
2605
-1
6575
4024
4083
507
3011
5780
8605
8300
2924
6540
4414
2269
7489
3769
7426
5558
4285
3504
-1
3332
6232
7340
6942
2983
5629
2942
4153
2334
2515
8681
4890
809
2304
102
2583
5707
2407
-1
4688
8959
8238
8083
2521
1399
1790
7397
5017
5037
5410
6947
8999
8898
7789
5631
4936
7206
386
4980
715
4596
2836
725
3313
8275
7494
3315
6770
5941
-1
6184
1619
3676
5832
3326
3598
1821
1135
5100
73
5406
2887
3110
3912
399
1217
7435
8969
8812
8743
3278
2431
2811
5874
3088
7205
7994
5532
8346
583
1189
1801
4684
2375
5500
4486
6033
4961
6930
4027
3324
2436
3192
2111
7110
-1
2634
-1
-1
7656
5091
660
8265
4049
7764
2784
4954
7387
6626
2416
5068
5245
7821
-1
1911
8751
2817
5921
3183
4886
2199
4621
8864
2208
7568
-1
6274
1187
8564
964
2123
8664
844
1855
4811
5115
4636
7931
3630
-1
4829
1790
7770
1891
4518
7994
104
2004
8230
3890
8970
-1
3462
1495
-1
489
4866
7732
4134
2793
1241
96
8417
2746
2759
8572
5479
7906
8333
8529
7028
7152
1299
2068
2494
6063
5523
4814
-1
3183
7703
486
6504
1488
8115
9130
2759
1140
4913
8273
5471
1682
1572
2769
2199
5514
413
4379
6259
6613
7147
3169
5993
6063
8967
3053
602
7902
6890
129
1550
2905
1230
3608
7590
7186
4355
-1
5626
6756
6258
6030
3819
8920
2231
6652
6048
8570
7197
8354
-1
1549
1981
2454
4432
6007
4684
3248
1529
643
6237
256
4868
2979
3477
322
8398
7357
7341
7703
3024
7630
-1
8092
6593
8224
4760
8041
6087
4721
1770
1720
7149
4057
4707
8389
744
5511
3207
6744
8156
6996
7403
6443
4321
8844
2136
523
5563
6861
2424
5667
1517
-1
879
-1
4272
3293
2086
4700
1675
6432
8234
1453
2289
-1
8412
8616
7113
9129
7886
2640
2728
8520
7789
3325
1125
4358
6133
8239
727
2836
7165
2791
7392
-1
8156
1065
4848
1871
7892
1565
2976
-1
7863
2308
6897
2287
-1
8515
5842
1776
2190
7869
3328
4453
5988
5954
6639
2296
813
8614
3796
6369
6241
8203
-1
565
5683
-1
8022
7209
4215
4837
7655
4902
3695
5085
8727
7815
8715
4932
6569
5517
7969
3913
7368
3997
2862
7699
3454
841
7390
1047
6983
-1
8466
9070
5543
6974
1742
6782
2398
6736
6375
2955
184
-1
6400
3612
6625
6274
237
7129
3441
7595
5875
2080
6553
5683
8564
3581
754
4879
1027
3610
3090
3953
971
678
7906
679
2513
6490
7094
5535
1547
7636
8909
8055
11
1976
3993
6615
1112
1866
4400
1871
8898
416
4816
3268
8983
811
3562
5124
-1
4753
4162
1768
1344
5618
1006
7604
4765
4034
5489
2096
4641
8864
8681
6380
7648
2341
5880
4546
1207
4528
5722
2731
544
7836
4222
6525
541
4456
1555
4110
6909
8223
577
7674
-1
5347
5161
6087
3820
4993
5566
6614
9215
7723
7301
4742
2407
2757
2044
8396
-1
4906
4664
6216
8726
8853
1188
3708
2454
9130
2208
7892
247
6339
478
4510
5718
559
4542
7968
7831
4852
1172
99
2439
3606
3570
123
8891
2329
-1
7979
4175
3228
8616
8380
5739
3293
465
6454
-1
1728
-1
1339
3620
5640
5016
2369
2257
3076
1666
303
101
3170
764
4088
5559
2234
8883
2495
-1
499
4940
2074
8050
1347
3455
6758
8975
2031
2975
754
6889
7251
3102
5986
2007
4805
6387
1665
940
6723
1410
6232
993
241
3741
8364
4314
3435
3171
3286
71
7469
5242
2792
-1
6138
8063
-1
2208
9080
6740
1756
456
7478
-1
3743
2199
6261
4741
3401
6306
10
7163
617
1558
539
5495
-1
226
6733
-1
3562
6723
2038
4209
1731
5232
1252
-1
6221
5782
3944
3664
816
6591
28
9195
1254
3633
4328
2179
4878
3232
1387
2805
2917
4233
1943
6166
5878
4391
5278
4641
4983
7300
9162
7340
5505
8648
5559
-1
2544
2432
6424
937
1048
460
1054
8407
5085
4623
6952
1006
780
3678
5006
8889
1493
3757
5030
3300
1747
7948
2340
7054
8686
1600
797
2685
7815
456
7581
110
2904
2742
643
7133
1897
13
8565
3562
7194
1962
5474
1410
3188
-1
1012
8916
717
9201
5028
5350
3537
7603
7192
-1
4267
2738
8464
7757
6657
3284
6571
2234
8626
5580
3952
6356
9170
4978
4663
8190
2527
558
2779
7063
3347
4018
2249
8320
9067
6896
1238
3403
576
5087
-1
5601
7798
4295
683
7633
2241
2236
8630
4029
510
-1
4362
8704
3464
5991
8376
2051
3916
3131
4899
2409
-1
3543
1288
4706
9039
607
4351
4866
5765
5935
3732
3712
2727
244
740
6811
6454
3405
9145
-1
5480
-1
-1
3820
8673
2406
8169
503
454
61
5221
6799
8722
3376
6308
3
6711
7446
6373
6592
4969
444
7380
8999
8056
4769
8585
8493
8145
3461
5060
2950
6206
3537
1896
3430
537
8543
8306
8842
8193
942
7910
2175
871
3970
3640
3800
6967
857
6163
5232
5217
4773
4400
8593
914
-1
2335
6342
6058
4636
1420
2831
4068
28
1774
2890
6144
-1
8452
5536
4675
4096
2000
6650
4368
4986
7545
2229
3328
5449
301
6355
3693
1528
6451
2881
7388
295
8123
8348
-1
4481
231
1264
8127
7176
-1
7037
6693
2812
7771
3226
-1
-1
6549
4199
3129
8200
2096
4778
2451
3626
9109
254
8650
4031
1761
1922
3065
8535
6200
7031
1725
4180
4721
8984
1883
8846
5791
9073
8977
3694
8451
8462
2497
9127
3439
6636
596
4717
2793
4618
1336
1924
-1
2681
5840
1592
1328
51
440
3152
-1
8821
8472
8832
8626
8869
638
5747
9121
-1
5942
6770
1462
1209
7425
7796
2821
6288
8612
7054
3091
52
620
1180
9017
4944
1198
5944
-1
6306
2692
1331
-1
5886
6409
3117
5856
6812
8255
1986
6508
6007
3883
2673
4906
4175
242
6974
2661
8426
5344
899
4126
8174
2229
4882
4678
8460
8727
1282
552
9088
9202
5827
5712
3310
2710
3649
8914
4159
-1
5059
2323
2640
491
1875
3766
3562
4986
1676
172
2934
7840
2396
698
9206
1177
6776
9111
5066
8650
6428
4689
2800
918
7833
2966
4399
-1
8195
7299
4357
7721
484
1383
5575
-1
3556
2771
3196
-1
1631
8140
5228
1027
5567
-1
4348
844
1653
7001
5091
5740
7541
2529
8448
8283
7125
-1
7798
2593
-1
8642
4675
6169
7782
6099
3374
-1
7937
-1
8909
9154
6929
3761
1399
4911
5541
2626
8636
2919
4330
8177
4490
289
5196
1698
802
4729
5564
9089
8585
1959
456
-1
3207
6512
-1
-1
1713
5473
3034
7854
9078
2613
7918
8344
2170
2148
1855
1412
-1
8134
3754
-1
1002
4299
865
3547
6087
5715
3015
2371
1076
2506
4142
3765
195
4220
3251
4415
1322
8283
2249
2487
3943
3290
921
1192
-1
-1
6163
3480
6789
1106
6189
7471
-1
-1
2059
4389
6379
905
569
2595
8344
7418
7442
3144
2166
7188
7638
937
6904
-1
2789
6274
4160
-1
3955
8200
7800
7087
6320
4289
3601
1487
1900
9190
1404
4020
1818
8155
189
275
8938
3887
8486
6466
5327
5730
5039
5218
7064
6636
-1
7685
854
4915
6094
1162
1723
1047
1144
5670
4409
1468
1299
681
4533
6808
855
7967
5263
8621
7587
8162
955
4339
4647
7940
6940
7342
-1
-1
9139
8860
1482
4875
1851
6839
3025
1227
2080
-1
1666
1468
5147
3646
6081
6325
1567
3370
7817
8922
-1
235
701
3958
829
9071
1709
492
4065
-1
7125
6845
4970
4166
8707
827
8088
6799
7415
6650
4605
7269
388
-1
3659
281
3100
-1
3829
4371
1584
-1
6672
1510
4744
3151
367
5308
1909
453
5822
451
1900
3556
6169
3952
2353
1903
5920
3862
6178
4486
1286
4747
9064
7971
7037
2620
-1
6724
2675
8771
7609
-1
6820
1876
2778
7109
6211
883
-1
9064
-1
255
1851
7381
5484
8471
6460
2595
260
9060
3797
5063
5104
5451
7138
933
6232
5611
4024
1025
3040
6336
3251
8274
-1
2396
3580
2525
3093
6891
6043
5183
4727
4449
8162
6869
6274
-1
1781
5904
4326
8868
5570
6254
-1
8683
8002
3253
717
838
174
1952
3205
4447
8761
3960
8377
5001
487
4957
2001
958
1720
4215
5284
3367
4019
5185
5100
7332
5809
304
780
4367
4786
3424
-1
7024
8590
4805
6188
3056
6846
7765
474
557
5084
2909
2528
4597
125
2632
1468
8088
281
5244
3779
8743
8150
6099
5343
768
6542
6298
595
5706
2774
2341
7961
5110
-1
-1
4489
9184
4258
8677
6736
3620
6425
1903
2987
-1
4654
7996
1338
3281
3902
5629
6268
6137
8685
4130
4607
-1
7462
4132
7277
7387
3311
775
7789
8896
7676
5167
8569
3322
1646
3848
1630
3695
8301
4684
272
3951
449
258
242
3552
7080
1489
2001
3431
1414
8108
5523
3058
7280
6335
780
2982
-1
-1
6526
7708
-1
7504
636
1194
5170
5373
7163
5473
7460
4299
4216
3728
8809
7791
8182
213
6883
8542
6442
1198
3634
3483
7109
1860
3999
4026
6202
4209
6216
1848
5047
8733
4277
2360
3412
7397
3447
5863
873
6841
4204
2596
3683
4054
7425
4967
1653
8148
7287
8512
4489
2380
6108
6520
5136
3883
2314
2913
5260
3392
6315
670
561
7221
6294
6742
5450
1347
8749
3148
1477
7266
2208
5631
2248
1957
5839
6870
6996
6783
5700
6288
190
7417
-1
8544
4490
-1
8221
5242
8093
5053
58
7046
6634
5832
8646
4279
7364
2817
6520
1482
3189
4794
4558
1430
300
4164
5148
661
4476
4978
7160
7450
5368
9184
1686
8088
7266
3932
2902
1720
5363
8302
4695
8034
72
1648
1843
19
826
6749
9012
9033
8898
2597
6464
6099
6821
1394
4434
2414
-1
8452
-1
4824
-1
2184
5921
2264
4693
6114
8175
9188
-1
127
6986
4157
3338
-1
4225
5129
7079
8162
311
8032
6138
-1
744
5079
5085
2325
8745
3269
5464
4609
4397
514
1370
1576
-1
18
4978
2752
1135
6469
2161
5712
8518
2541
6553
8193
1353
2539
2535
6218
9136
8370
7453
4333
2169
5309
7196
3059
5953
8576
4380
8432
2096
652
3410
-1
8974
4195
5835
843
4901
174
7561
3018
3271
4131
-1
6336
7674
8752
7161
60
3060
6456
5617
6502
7269
8596
2490
1507
8636
-1
-1
3844
8291
5249
-1
2254
1680
-1
2766
6732
3070
4410
8159
8151
4456
-1
3221
4517
4280
2137
4319
-1
9125
657
7168
6376
8764
1720
3534
4099
-1
5272
8438
858
6820
5779
8730
4144
800
7353
-1
3715
9064
5964
6320
5444
7157
8957
4145
1390
1514
2013
5859
822
6735
784
2825
7380
3788
2792
4272
2887
1366
2330
-1
5320
2738
6461
5280
6311
7775
1965
8263
5041
1212
4829
4342
5711
4413
928
6565
6983
3167
2626
2373
2863
5032
9199
4042
2229
7859
9213
6464
5046
4888
9116
3258
517
1759
8270
4376
1598
5360
7262
8864
7555
780
-1
1448
4703
2757
8455
8454
8250
3032
6020
306
2402
7974
6623
2877
1322
4863
2305
2195
8583
-1
1914
5563
-1
243
6974
6001
2272
395
713
5849
899
159
8646
7510
7753
9067
322
2104
40
1246
5011
4301
3088
5376
5833
4344
6634
4842
7078
3970
4970
5219
1503
2548
2807
7716
4691
3320
2771
8990
2719
1419
1581
6074
2246
6890
6112
4632
5640
7704
4733
2129
7630
325
6603
3844
5289
1629
-1
4092
3556
7699
2827
1020
2839
6457
-1
1844
6430
6369
2965
-1
6108
5705
7821
7176
6911
1391
3392
-1
3579
5822
3027
6342
2067
3829
186
-1
3022
9143
281
373
-1
4608
2767
7450
2407
7435
4102
7147
2935
7615
5872
1588
1347
9154
3712
5612
5637
1125
3680
7421
6312
-1
2848
7438
4317
7854
2619
2313
7242
9139
4192
2735
1762
1240
4460
2758
7301
3234
4301
7379
6390
1917
3826
5873
2788
5362
8536
8931
784
5304
8736
5104
3320
3883
5674
2515
1027
4107
1692
4244
6700
4886
5741
3827
4817
1445
722
1247
4365
7336
5225
6922
2080
8452
8626
5554
8932
3980
6964
2200
3287
5153
8785
3448
5395
7392
4548
1411
5880
6556
4591
4819
-1
4439
2796
9166
3601
3196
1740
5421
66
-1
1034
7159
8204
5199
8674
2577
7862
74
745
7116
5280
6229
2049
5426
4920
256
8450
2640
5487
2647
8942
-1
3399
2884
9118
1673
2313
5752
6679
546
2338
284
4123
4413
7441
7091
1003
3493
1104
3617
1237
-1
9098
6457
3844
2917
3577
253
5803
1714
1539
6340
4396
9184
4023
2085
-1
123
1082
-1
4986
4909
289
7931
2688
161
6361
6707
4928
7161
5286
6918
2434
8792
5626
3839
5131
8893
307
9142
6557
5847
654
-1
744
1300
2400
3920
7965
251
7251
2499
6808
9055
6340
5575
3667
-1
7078
4418
7546
4656
3588
5692
4158
5331
9151
8686
5451
2697
6929
3873
-1
4438
6540
-1
7986
200
8846
2742
386
6237
8090
8956
1560
4409
4228
6115
1775
8749
5916
1741
4179
7666
1281
1263
3114
8833
7126
286
8561
6407
7125
4981
7168
5424
1992
705
8147
5399
7763
715
6092
8813
292
1401
5525
-1
8941
5592
4566
-1
6681
3475
5649
2532
7548
9183
3398
3205
1040
8958
2850
3703
5188
8601
1959
4600
-1
1071
5340
8039
1318
7546
7892
820
-1
6308
1187
3181
9105
4851
4195
4786
7170
3799
6654
6538
-1
9000
3389
3171
7629
4639
2411
4176
8008
3907
4425
6043
9126
8751
8221
3813
2694
85
2773
7467
840
740
4866
-1
6341
-1
3799
4391
4814
5921
7455
6643
223
3109
371
7665
6232
7366
7761
374
6652
6644
5307
-1
4546
5954
6361
604
6557
6787
1202
7222
4242
6473
737
4046
3412
4902
3342
9130
31
-1
7246
9199
3169
774
7645
708
6409
1385
8052
1900
-1
1633
5029
2153
1086
1847
6007
3432
2096
2922
1833
604
3676
6818
1507
3138
3994
-1
9081
360
3824
9030
4104
7132
7708
6157
7644
5324
757
-1
-1
4707
4719
5415
2008
1525
5592
9037
7211
4574
3076
454
4488
5487
5152
5631
5321
8578
-1
6916
345
2172
483
3868
3993
4850
5966
8533
5110
6044
1731
5563
5543
-1
376
2083
886
2930
6637
7958
3615
8889
5991
5316
4828
4580
4629
4805
4710
6697
3858
8700
5250
2579
2626
9027
805
576
7021
7710
7250
6670
1909
2286
-1
7350
-1
892
8805
6476
3161
1878
9175
7467
989
8487
-1
762
1257
5153
2593
7584
-1
2794
2224
1541
-1
-1
3816
4318
134
7534
4697
-1
945
7706
-1
339
1499
4207
3124
6364
2379
7802
-1
8520
8929
1353
7143
-1
5640
2947
1709
7294
8183
5933
6047
9190
4488
4962
1705
2848
6088
2369
8416
6860
3867
8096
192
885
5636
8523
8191
5677
1766
4945
3881
4456
9024
1815
2579
722
904
7787
492
348
2398
2057
8504
4785
3255
4886
6857
4019
2568
2217
7510
6369
2944
7845
4778
1871
3311
636
1339
8250
2607
-1
3933
8473
5067
8851
2992
-1
2386
3927
4370
802
8770
8173
3302
7426
8458
2283
7510
4077
8396
7646
1768
495
5047
3862
4893
3160
3802
2525
7651
2367
8422
2439
4804
8038
7984
8772
7201
4583
6916
8785
240
51
1752
-1
6096
4155
-1
4807
-1
4244
3970
7266
6967
6648
3918
6079
6929
6706
5249
4084
5226
867
6245
1165
78
2917
-1
4805
7332
811
5905
4324
4253
1263
3174
-1
2723
3338
4212
3828
4574
7930
1914
1181
8997
5740
7416
730
6333
8078
8131
6857
487
1683
79
2532
649
8178
7365
1151
3586
8239
7140
213
2764
888
6648
-1
2388
769
7120
-1
2754
3919
2280
1233
7251
4623
-1
2905
1718
7066
4295
710
4594
3819
5191
8775
8542
9091
2044
7766
3906
4941
3311
4466
2335
4876
1097
7562
5537
1203
4690
905
7723
1142
5875
3847
2308
9143
28
8226
1246
4986
7449
4330
2589
3276
5324
5084
7996
6498
-1
422
327
4320
4612
7561
9089
4482
3269
3239
-1
6938
9171
1626
440
3198
204
438
8354
914
739
7116
-1
9100
-1
289
6043
8445
1261
2332
5697
6844
3140
1629
8173
2047
8422
994
3772
432
4792
8531
1185
7294
874
7026
8881
-1
3113
8558
4600
9105
6124
9
6564
8955
445
1257
6182
5796
1173
-1
6187
8639
4296
369
-1
6728
2451
858
6189
5188
1086
7120
3118
4609
5191
4686
-1
4783
2658
7759
1063
8976
5560
957
8958
5217
3568
3527
2611
4672
1308
5971
3050
6693
1672
2487
1061
6190
9082
3365
2443
5662
3650
8030
837
7782
2844
4685
5599
8102
253
3475
5000
2607
8655
3692
1302
5572
5575
3311
6397
2535
5401
7250
8202
362
1414
3415
-1
4940
5208
3152
-1
6823
7058
-1
8857
555
-1
4565
501
-1
7665
5633
1864
-1
744
7717
7581
3261
7072
8518
-1
8825
-1
4621
3208
4402
5485
3257
5829
8707
3390
6382
9079
2973
2589
-1
3193
1518
1284
6367
167
5148
6855
8894
8582
1277
5961
2223
7801
3964
-1
6774
2851
6380
5179
9191
2858
1519
5142
3418
3337
2005
5812
1320
-1
3124
849
3160
7842
5483
8127
6613
7134
2093
8185
5926
3964
8071
2258
8570
5458
2884
4881
8764
3113
7714
8834
4566
8616
2903
7489
1172
2283
4632
7572
6178
278
7517
4274
4773
6022
8916
2861
3780
7703
4570
6400
748
197
2292
268
4476
1935
1008
4390
2257
359
2512
4621
4673
1066
6776
1643
2047
6392
2655
2962
3560
1353
5177
1442
1852
6878
4224
-1
6666
7060
5120
2647
4207
2861
553
4756
1118
1016
6838
1701
5350
4753
1869
5735
6013
496
49
-1
3873
237
3946
4024
2895
7831
2472
6663
3763
7013
4715
9010
995
6676
-1
7402
4489
6448
6638
9098
8290
8550
9197
5080
6657
6108
9179
7639
7194
802
8807
382
8774
8259
4010
4632
1624
4722
1897
676
3297
1394
3208
6940
8736
206
8405
-1
460
2681
5955
949
2164
1027
3068
3043
7111
5535
5045
7908
7348
4367
2706
4034
5446
2553
7129
7368
5161
4407
558
2678
1221
938
3457
4170
6783
7963
2146
6538
5471
2222
8063
4641
4615
1629
95
7963
4063
820
2593
399
1855
1053
555
885
6322
6502
5504
1923
-1
8811
7367
7639
1065
215
7105
4391
2076
5033
-1
1959
-1
7516
-1
1850
1632
3010
4574
4957
9137
-1
8183
8022
2550
-1
3043
-1
411
2310
7400
-1
582
1695
2449
-1
4849
5759
4121
1707
4778
8527
3938
1809
8516
8298
7495
266
3737
2223
6805
8646
2661
5890
2974
3664
7803
7380
7813
1066
8257
-1
8537
5788
1068
3667
6268
3516
2029
-1
7042
5543
5426
6906
2009
3520
6405
1227
5470
9142
8215
5599
113
-1
9133
7966
3335
8704
8959
-1
7548
1696
3412
5643
7723
7243
6188
1570
1281
5611
8211
4891
8612
5129
7869
6703
3210
8451
-1
9096
6107
5523
2434
587
7530
-1
5137
857
6499
1349
7928
3757
5620
5371
4416
8389
4686
7123
7177
2247
40
2683
8574
6487
4759
5400
6912
8047
8113
7230
3827
5166
6896
2267
4776
-1
5788
7352
4611
5039
7116
8619
-1
7251
3390
3658
2380
7672
8724
6848
6622
7546
8807
1957
8646
519
6106
3237
1605
8758
2348
2231
5607
4973
2260
4537
1086
4447
1347
7168
5780
1091
5132
482
7467
6257
1688
6811
8430
4171
1079
2899
4521
4838
4318
5201
7648
-1
5926
5110
1263
2640
1693
1804
3834
2906
7536
8968
3935
6664
8776
9134
541
2192
4394
4495
3424
1746
4051
8494
610
7294
5809
7543
1420
6297
2823
3548
1745
700
1066
7256
9096
-1
5165
145
3015
3189
8274
4829
-1
3875
8234
75
2339
7444
2713
5676
7307
4223
4560
8446
1637
6872
256
7274
2103
1709
5479
7551
6294
6439
4178
7206
2962
908
3192
4565
7923
4851
4087
5749
571
2919
8690
3225
2134
8270
5204
8302
1583
4620
2781
8110
3264
7872
910
8030
339
-1
9172
6714
869
3844
7314
5933
-1
6373
1257
2271
549
1009
4693
9087
1232
5929
5860
994
6626
6310
8509
8036
2990
3978
3097
5969
3374
8208
213
317
376
3405
-1
4570
6420
6895
6862
2189
6171
7444
487
7995
1848
7729
569
355
4811
1457
8825
1594
2861
7348
2513
3662
2231
5317
-1
5871
6389
-1
2008
8955
3033
9027
8616
4900
2101
492
526
1739
-1
8662
6492
5698
8340
1576
-1
3141
2211
7974
945
6215
1155
1900
9096
4766
3263
8167
8682
5776
4410
7551
8540
1672
-1
5085
-1
3829
8580
1709
-1
8126
3033
4935
-1
7708
3295
8407
8715
-1
-1
8426
4177
2657
2641
8809
-1
4774
3921
8585
7603
8698
5223
7120
4080
2179
7217
3819
2063
8139
7779
1264
6261
3909
1755
-1
1871
7020
207
927
6545
-1
3673
4753
2199
6508
6573
3321
4805
2298
3772
7499
456
4529
2710
6081
7634
4470
6099
5431
6639
3015
7157
8663
433
4071
1390
3839
4418
4682
3282
4636
5995
2759
1347
4945
-1
5103
1376
8068
5829
6873
7609
7109
4990
7314
1347
8396
8011
9118
6117
3617
-1
186
6254
9119
4417
7566
8050
6180
641
8123
8326
1525
7602
8684
6227
232
7907
2327
5001
8599
6054
6278
7235
4137
3581
-1
6081
-1
4387
887
2423
1122
4922
1495
4320
5840
5756
2099
7825
8391
5768
1801
7813
4492
255
5675
2960
6074
52
6229
4614
6693
3237
1192
4778
4307
-1
5475
339
8838
3601
8567
6469
3135
5824
8214
4338
7208
837
5028
3226
7280
3039
3516
3080
3977
8883
6427
5947
843
-1
2107
-1
3655
2728
5631
2539
4775
5886
2360
8212
2141
-1
7242
2641
5278
7775
5681
8982
1100
5343
600
849
6182
3414
4938
1148
3031
5100
5053
2550
1460
5460
4299
449
4318
6435
1648
3497
6423
3606
8632
6144
6037
3276
-1
6919
8861
6230
739
9157
8802
263
5041
1270
1456
6736
5100
5893
7865
185
8459
2416
6848
8177
8480
8905
4570
176
4939
6817
1223
5660
7610
6263
3370
6520
611
7348
3671
8618
3194
2983
5262
-1
3274
6711
1876
6055
3358
6979
2697
5082
26
8380
577
7747
6929
9168
2146
2636
-1
8686
5023
8046
2545
8834
5476
1292
3620
60
1183
3489
1166
440
8100
3878
2572
5129
4546
4717
1511
3394
6428
805
2640
5079
7094
3088
3001
5284
1044
4936
5429
6586
6308
2407
2690
1651
6727
1995
8145
5460
8398
4878
1765
1626
1482
139
7173
213
-1
-1
6274
5025
7165
8547
5104
6309
-1
4677
104
6781
7207
2256
6280
7543
4474
5241
3579
1495
2069
1754
3136
4659
9170
705
8121
2031
2107
3036
7528
-1
1859
598
939
-1
1889
-1
-1
316
1965
5752
754
249
735
3241
-1
8653
1495
3228
4188
2398
8987
2627
6684
4630
3189
7343
3743
6355
8667
2545
5181
4039
6717
1989
3997
9006
4366
1505
8637
4137
1075
-1
6110
8487
1212
1068
4373
6246
2339
4101
6040
4438
7934
3814
8362
8624
313
3052
3307
4080
3932
4427
2142
6857
5237
5640
7701
7598
9091
139
7636
3982
7923
-1
8800
6650
-1
2083
2784
6211
591
2934
8491
4760
1624
-1
8721
-1
3858
-1
913
7017
7149
8395
5376
-1
4779
859
6719
5123
5264
4567
5601
7980
4850
8146
1986
8183
3823
2730
5535
4466
4178
7265
8626
8766
-1
-1
-1
7985
-1
7020
39
3163
6130
517
1844
4866
3782
3329
2769
3585
8083
6756
1172
712
3030
307
1230
7967
5489
2656
2727
7290
4719
3639
493
7321
-1
8007
2497
7176
7712
3941
5450
7992
-1
5551
6575
6027
296
5707
715
8780
4987
4518
5856
253
6920
6159
5083
1304
6511
6959
5401
6435
7654
3111
310
-1
7399
7753
5885
6943
1523
122
4684
3040
4664
6024
2937
2602
8958
3656
5152
4709
7671
5775
139
227
3718
3109
8893
-1
6916
1883
9204
8119
7940
8962
8987
6867
7624
5530
478
6307
4204
-1
3846
6571
6340
5225
3867
568
4463
1977
7397
3620
8283
3759
847
3187
453
8446
4323
5936
3973
4306
787
3911
8315
698
1692
9049
8192
7224
6111
7098
2875
8828
6335
4371
3012
5733
5292
739
4586
249
8869
58
1548
6695
8336
-1
176
4600
661
-1
1636
3857
6617
2530
1061
4213
5003
9153
5033
5161
2702
9159
322
5279
1386
8974
5162
7323
839
1327
5977
-1
438
3921
8564
179
7055
-1
5719
6876
780
-1
7659
919
3420
6587
6556
-1
-1
3676
2062
9182
3901
8336
972
856
843
9208
8275
2928
1927
1124
4486
1410
-1
6442
9129
192
-1
525
2211
7334
717
7642
7043
2842
8119
7603
9195
3741
4328
5000
7661
937
5607
8413
-1
5518
6513
3567
8657
8340
6427
8840
4967
8509
6023
5514
1692
4306
3336
-1
118
471
7903
4774
1974
1389
2066
-1
377
-1
2706
8149
3409
8347
2027
7163
2125
9169
7273
6307
6336
3871
8228
2318
1392
7712
8955
6547
8973
8658
8567
6582
8401
8905
7865
852
1294
2808
8306
6283
9179
9142
399
3243
8438
6702
2473
3678
7296
329
5873
7375
1188
1147
8601
8612
8445
2411
4998
-1
7885
2202
7074
8824
4039
8020
474
9070
897
4140
6504
8298
3117
3144
259
6385
705
52
4321
2384
7469
6455
7534
1599
7188
-1
7842
2640
3178
3232
7865
134
5626
7554
6032
8567
3505
1415
648
7132
4210
3858
3993
9102
-1
-1
5616
4220
1636
4433
9094
3853
2362
-1
3075
8621
4126
2279
3027
3655
5573
-1
7471
6454
623
4659
6440
-1
8794
8471
4471
9114
8792
666
8007
818
4479
8951
1655
5466
2499
8104
217
1526
-1
1397
5277
3431
-1
809
9057
8878
8078
9040
7539
2139
7085
7536
3141
5743
5047
95
2001
8646
463
3371
3083
6062
4129
4334
6606
3736
8389
4762
4114
1507
13
7307
8570
8616
4753
4612
2155
4422
6892
8340
4372
1672
6319
2422
3816
6880
7613
3808
4953
7303
4107
6907
4285
471
6108
802
4801
1698
3152
7309
6895
6733
4210
5898
8286
1445
4554
-1
2980
6752
6367
715
2599
-1
4931
2153
5393
2036
-1
7170
-1
5038
882
8957
9215
6268
1003
5660
1995
124
4285
4110
1398
4717
5718
7569
4312
3129
7843
1736
-1
4444
7581
6225
4532
6733
5723
2368
7359
6312
238
2905
2252
6117
6857
6334
6339
5387
6877
6315
9110
6020
2109
2782
1643
8159
6321
4389
4146
865
5514
7075
7655
-1
5272
434
-1
3250
906
3754
663
5721
1068
562
294
6700
5355
7287
56
5941
1547
567
7314
8521
5336
2387
4546
2664
9172
-1
5148
1429
3598
3062
-1
3075
5494
8965
8733
4396
7839
7951
1837
1546
3748
1476
2599
1076
5980
6724
7429
5563
5199
5445
1720
5048
5778
5590
7961
3520
3430
275
6428
1655
6769
4531
-1
4501
6744
5624
5928
1228
3684
6772
2495
17
3857
7836
4104
1302
1110
3349
2222
5523
7359
5691
8851
5037
6508
3223
357
3039
6076
4095
1050
4580
258
16
4438
7290
6811
5780
7251
5813
7867
6805
-1
9178
1142
-1
3718
2034
6884
3765
5521
4492
6768
8243
6717
4050
7548
9181
8801
3143
5044
133
3896
7458
21
3002
3573
4559
399
1526
9
2617
5445
298
5998
-1
4224
4665
5199
52
8833
6923
3917
1044
5100
2674
961
3358
5608
559
4311
7075
188
9199
8824
8775
8470
1876
2125
5204
2057
7777
6650
3631
4570
1963
59
4634
661
4524
425
6409
4787
4448
-1
6767
4222
1479
8459
195
8214
3199
3329
1349
7301
2979
5487
2643
1823
-1
3913
3165
1022
2853
2183
3129
6479
2082
570
7246
5
3606
5170
894
6155
-1
6403
2242
3865
1302
5850
791
7710
756
2553
7091
1532
7624
4801
6400
1662
1628
4816
7314
2101
2771
4796
888
5310
6441
373
6758
4962
-1
8389
2565
52
3770
280
6424
5163
7971
676
93
3064
8833
5867
3097
-1
2368
8754
2098
7212
9177
835
6664
1869
3221
3963
1514
759
3833
3939
3901
8027
8503
2432
5593
829
8909
8614
860
2734
1126
568
4347
1721
5060
9105
8445
2546
8340
7834
6265
3885
1793
2550
-1
5557
-1
9204
69
8907
481
6499
4585
2391
1995
7926
5219
7921
7716
7800
7140
1148
5437
2411
1784
2148
2362
928
3788
1249
966
5385
1503
3590
-1
4075
1689
9017
134
1484
1063
5760
1361
5741
4975
4521
3883
7607
5033
271
3013
5097
3743
96
7744
3109
5404
2522
4274
5497
1854
-1
-1
2437
4733
4789
-1
2332
3793
8367
5873
4583
6866
1169
2038
3454
7661
4339
2957
-1
3534
8297
1429
7157
3705
5398
3008
2353
9121
-1
1522
7609
379
6066
7677
6139
7875
5901
4463
2175
1817
1838
4301
3683
7650
3898
7399
4933
9215
9096
2398
3395
1887
5026
7951
2314
6119
340
3030
2382
5507
-1
8013
7133
4536
8871
2946
2953
5084
6746
1546
1665
1294
516
7414
1430
-1
2535
3786
7879
2969
-1
2798
9004
7728
5689
363
944
462
2350
13
635
4105
4124
689
5331
6561
512
6745
3212
1896
3678
1914
3880
6996
595
3320
8466
-1
3390
8733
8357
7757
3427
-1
4420
3129
7014
3452
4714
1797
1966
5404
2748
-1
3645
5896
766
4967
323
2407
7729
7871
1441
971
4096
6942
3262
-1
3198
3466
3070
7609
29
127
6552
4117
111
7238
3618
7195
2251
4225
1571
1689
8304
4915
8644
295
6331
6047
4244
6614
8211
7723
3844
3820
3648
1530
3259
303
124
8294
1410
-1
2863
8173
956
4600
2692
4084
4504
5332
3493
7129
701
5770
4623
2942
4027
4458
964
3444
8812
6556
-1
-1
1482
4666
4893
5058
5973
4173
264
6829
4157
2515
8169
2692
5261
6748
8160
3759
6502
5033
4080
8616
6047
-1
717
2673
8751
-1
2195
737
4702
5004
-1
8461
9116
4503
5352
9121
6918
3141
8727
4780
4432
1947
4265
3808
5523
1918
4906
6442
235
4847
2652
9133
7586
3473
-1
3275
8037
3083
1293
796
8149
6860
4804
6733
2740
8222
3248
6808
1300
4846
3308
-1
6176
5424
613
8713
6472
8240
8578
3072
368
2737
91
2908
2568
7923
5451
5055
7921
820
5723
6313
-1
2411
8317
6960
-1
4223
7364
455
16
4213
1460
1882
8830
6736
2996
7525
3559
3258
2425
8997
499
7035
7408
5138
5060
4349
4850
6675
6988
6004
2022
4497
7157
582
7995
7861
8699
2218
6116
2794
7855
4783
5410
4672
6128
5795
9112
547
7522
8221
1855
9134
6353
-1
4953
7418
652
7977
8883
7190
8655
7215
-1
7444
1555
8092
7501
2283
2564
3536
7205
4394
3832
8200
5980
1372
1315
2326
7618
3669
2329
1727
8693
4064
1594
7931
1309
3134
8797
3372
7588
1288
5694
4985
8014
8340
8704
4953
2932
7953
4999
2915
5847
3018
2411
5860
2640
5228
-1
1400
5261
7330
995
3407
323
720
2690
5723
7438
3601
4365
712
4033
3488
1545
3676
9064
7927
6751
5025
4162
6933
8887
7881
5225
-1
6493
2229
4124
8640
4069
728
6684
5257
4843
5806
-1
-1
-1
648
1241
-1
-1
6789
8278
6434
9134
7323
3566
2246
899
1092
5707
6639
6146
5683
1362
6634
-1
5255
6825
4479
5590
-1
5127
1688
2678
3313
1504
8905
3613
-1
3294
682
6261
6982
62
1192
6867
1160
990
7558
6301
7393
618
1807
5586
3554
647
3781
7648
5839
2746
8784
1301
1322
451
3406
4140
4735
8329
5421
7509
3613
3548
6957
1812
3794
2931
4151
1112
8538
6493
1846
204
4344
3147
5226
5214
7777
8730
9112
2089
3862
4008
4506
4180
8084
2921
8949
2580
4339
555
3977
-1
5154
4580
8082
1507
1976
4364
7874
2151
1521
-1
4310
8752
4189
6994
4362
4471
5692
366
2113
8419
6001
4244
3212
3100
657
6160
3811
1423
5285
85
5359
3222
6952
5351
3523
3929
1873
6108
853
5279
1356
7749
7816
8376
2019
1357
2717
774
1468
1665
4186
2211
999
5825
4119
8575
5366
4148
6729
4348
8945
2930
7596
2079
6199
7992
2976
4427
2277
7908
5050
4767
4567
3861
1114
1962
2727
4167
3754
166
9099
3878
7242
1177
3758
6747
7493
42
4129
3222
-1
5791
7006
6979
1607
2222
7526
-1
8887
1600
449
5946
5087
924
8479
6117
1152
2650
7675
5125
5504
8175
1898
-1
3093
8243
8290
9114
8243
4752
1969
6306
3676
3708
5196
5748
7088
2668
7270
7017
6761
5969
750
285
4854
7683
7479
60
2992
8568
8234
-1
789
4667
61
6460
1966
6054
8938
259
6728
2533
7534
149
1433
8362
-1
5579
7584
4391
4063
-1
2833
7374
487
6076
8073
6765
2175
9165
5370
184
7973
6369
8857
168
1084
945
4144
3127
4343
4308
8975
-1
8048
4890
4733
4725
1487
8730
3547
3922
7489
775
4365
9039
-1
-1
5170
187
3333
703
3353
-1
6252
6162
7548
6899
5910
2978
7087
5341
-1
7815
7311
3929
7178
9136
5261
7572
8551
4884
6681
-1
6880
3932
4837
1855
6218
504
8344
4667
5690
4346
75
4992
6119
3188
6121
4418
2222
5460
7331
5028
2996
1104
9191
4101
6915
95
1356
4080
769
540
4256
4135
3994
5009
1030
712
4325
723
7990
822
5415
881
8659
-1
2376
4202
6280
5953
6017
6344
3039
6070
-1
2962
5476
3595
6236
8470
4845
8342
1419
28
5965
-1
4735
1446
4175
6478
1249
3921
7045
4128
247
3012
5311
1579
2512
6252
4513
8407
6808
-1
2240
3012
621
654
6404
5916
-1
3708
3307
-1
5487
8426
350
8434
3809
5204
6069
-1
6207
2696
2283
8146
-1
8880
7311
7332
5779
6883
8013
7424
4627
2915
-1
2414
1410
8807
406
7573
-1
7501
2392
4966
7305
4215
-1
3736
5503
5120
805
3813
4920
208
5006
2131
3968
4656
673
7115
3733
537
4400
6839
-1
5653
8593
9078
1424
2488
5416
6932
5706
8681
8046
3783
5881
5129
3109
8528
2972
8736
1161
8659
1328
4813
-1
7045
7492
7859
8785
3367
8928
7917
6100
1803
3342
2682
3250
2193
7104
6587
7372
1273
5038
-1
1331
4050
-1
8634
4722
2759
2213
2170
8884
376
6969
2004
3152
267
8861
971
8069
-1
3492
1295
2519
3894
7095
6999
5183
8108
3088
2261
1828
3551
8276
5645
1643
3441
1374
9059
8907
1551
2193
6360
2980
-1
8582
544
4169
6264
1937
5811
4878
7683
8185
2577
7317
5719
3025
2694
386
7732
3009
2386
-1
1539
3873
346
-1
1192
5860
1397
8809
598
3730
2139
8704
8743
29
3687
1177
6137
145
6096
1018
3259
9177
7292
415
8780
2877
5880
8041
5086
8333
136
4330
7861
1453
3452
654
2602
8726
4469
3335
8223
219
4060
1120
2413
7060
8310
4605
7205
1900
3331
3329
1204
4775
5934
6704
5365
5233
7604
4537
6778
2613
6749
-1
5694
1655
8419
-1
553
633
-1
2672
7278
2218
2246
5991
1742
7192
5321
5671
9078
6498
7514
8815
145
1191
7222
1665
4803
7010
837
5474
2589
5480
7597
-1
3086
4584
-1
5986
-1
4566
1689
4177
1192
5857
1357
6479
7489
-1
2305
4155
796
7738
951
8300
8965
6290
5072
8194
7719
2249
5930
5651
3827
8690
4562
292
1545
5348
7598
5413
7543
-1
4922
1430
4980
1090
6639
1526
3615
3315
737
6287
8333
1534
-1
3720
-1
961
149
1519
4171
6079
3561
1453
4825
2416
6380
5504
4684
7750
2091
5048
5681
7602
4346
2962
3775
1858
-1
2163
1291
3581
2059
672
2182
3095
4258
4526
7888
6678
1537
3781
6503
1440
3855
566
942
3193
2091
8070
-1
6672
8108
645
5540
7888
888
6054
3876
2107
2851
7016
7441
8898
2334
7467
21
3353
3551
1437
1934
1619
6916
796
4041
9000
2618
8218
919
5218
4338
4227
8365
4070
1920
870
4311
6096
5053
3486
1761
7507
29
5249
4278
811
58
6559
-1
3253
3706
2671
3620
4611
3977
7505
5720
650
2812
1668
5700
1786
2272
5055
1713
8466
3065
1667
8914
5715
6679
-1
8842
584
7077
5007
4826
2425
1693
5741
5851
657
7589
3226
8157
8423
3420
6969
2213
2037
-1
1108
5351
5942
2936
339
1984
5922
7274
-1
4609
6362
5993
9126
6484
1879
2376
6595
5853
4405
3020
4372
1821
3035
-1
8202
1398
1765
2339
1212
6985
8332
2509
4550
584
6670
2258
944
3754
1083
4843
7602
7460
717
8410
7984
2448
-1
7309
1275
6735
1281
4065
4769
6369
4010
8074
-1
6380
3543
9186
8962
8437
4464
5017
6923
230
2612
3646
8141
-1
2672
5620
5193
2815
2813
8833
2473
6832
5368
5705
2448
-1
8021
514
8166
2818
1558
5228
6237
2073
8214
1247
5026
6711
-1
8612
4123
1050
1852
4130
1428
2625
7100
6005
-1
6364
5649
3528
4859
9091
7080
244
3801
3336
5041
6198
6410
7206
4285
4742
-1
8639
5164
2494
7197
9147
7578
8837
5739
253
5260
1324
5038
4364
2298
5532
3641
5106
3646
2439
3805
4913
6135
9073
2311
3446
5725
5252
813
1017
6559
1383
698
1950
28
6157
5426
1986
1851
4753
2272
9088
4850
4158
7517
4487
552
417
6865
1848
4450
6175
4610
9081
288
1108
4651
1246
886
6511
841
5835
-1
1818
641
685
8915
4018
8812
3598
6844
3570
4211
6508
1351
1648
1498
567
987
329
7633
8496
3575
5658
9199
596
8763
3073
4196
5624
6312
3065
6269
6193
6182
4089
893
8
1720
4442
6394
1695
8951
5566
9084
2862
-1
42
2454
3098
4034
4548
6235
3817
7685
8069
9088
4719
7584
9199
3580
1413
8698
1434
735
3064
2544
5047
1353
3695
1165
7082
8733
8707
3669
8805
7739
8943
5399
1803
8131
71
849
5152
8436
1831
1914
1528
8283
4335
1903
7120
9166
7129
8026
8025
1798
8758
6733
3174
2063
633
5543
-1
3565
4587
4084
8121
3496
4406
5800
8225
7811
4355
21
6088
8574
8512
7261
7541
9042
5759
7735
562
1279
921
8556
961
8538
2912
2470
3581
8687
9139
6753
7156
966
8497
6205
4147
3543
2861
8574
-1
2348
2239
7840
6055
5664
1405
7666
2855
7366
2941
6124
3358
81
8681
7708
7405
8794
8007
1249
689
6060
8502
757
453
-1
796
1840
1011
7375
1077
5800
8538
-1
3012
1486
769
8115
3991
5937
8937
5563
8566
3968
6797
8925
5177
3790
7128
-1
8050
7397
8582
8260
8593
542
8322
3891
8525
4693
2686
9189
5080
1135
3755
564
2379
5002
2026
6724
2817
1324
-1
6728
276
5860
7932
-1
5926
7761
1613
6650
5938
6183
4063
7121
4759
1716
3933
432
981
9208
7564
6018
8952
3106
4077
4700
1416
9102
1613
3353
4863
1882
4783
2294
3414
7723
3429
3
8286
1322
8125
1669
703
3012
4830
3509
2229
159
1572
436
91
6780
6994
6058
2462
1919
1617
1606
8007
6528
1681
5185
2338
7779
1185
7448
-1
-1
-1
1432
6648
3147
8576
3379
9195
8806
8187
5986
2175
7391
-1
3945
2298
3122
9066
4927
7168
7804
7489
7984
1835
3767
4548
2085
3669
999
6915
7620
2865
1561
1068
6350
1505
6108
3917
429
5467
2478
46
3466
4022
6988
9091
-1
7729
3899
5821
4764
8136
5700
3748
2661
4970
-1
1995
2355
5965
-1
8759
2346
769
4268
4341
8572
8021
814
5611
1528
774
2487
2997
1957
7219
7120
5992
3018
9154
6298
6256
4576
2317
4978
1746
2261
4054
2701
9186
6723
-1
3052
4367
3805
5791
1177
849
1779
6162
3365
5789
118
4870
1419
5611
7186
6461
2290
588
2465
4182
7380
1618
514
4898
1295
1765
8634
-1
2997
982
1109
99
3156
4716
8460
6500
2105
-1
-1
2666
4107
8209
64
3374
7467
7391
1632
6534
8954
-1
-1
6861
-1
5618
3171
7048
5575
365
8254
-1
2373
2692
3233
2258
455
8062
1800
852
951
4039
4051
5548
7450
1410
2544
8405
8713
6763
-1
-1
4421
2099
8162
6781
8794
2188
-1
752
6083
1824
5586
5419
5873
8704
6148
6075
1399
7548
-1
-1
6276
7001
2449
6796
6747
1183
9050
1273
6024
5856
2336
6356
4999
8350
6184
3138
9171
2375
6511
6911
1136
4365
8965
3439
994
7613
-1
31
7784
-1
2304
4164
4673
3915
698
4550
7467
5796
4153
-1
8025
5611
255
4225
-1
7745
7152
4805
2734
4828
87
4456
9191
8870
8464
6315
7647
7143
6687
8508
2716
788
5690
2035
2238
1474
2003
9175
3703
789
8086
121
5682
-1
1775
4154
-1
8711
3143
171
4605
4984
8881
3869
4970
242
7010
824
6229
7726
7747
7578
7402
7276
3604
6294
2389
7004
436
6646
1876
8056
-1
8370
1339
8033
8561
8577
3206
2011
4829
5793
6607
1212
1317
5556
1387
5590
8
2728
7822
4068
4506
6923
7858
1448
2550
7037
5016
364
3231
-1
92
635
663
2029
6683
648
7402
1605
4852
661
9208
1466
8949
8182
54
1959
-1
4752
2690
939
1269
4774
7048
7344
3271
595
5941
9057
2868
3273
2262
7629
2733
-1
665
3579
4402
6932
7899
3290
5858
6899
8838
5481
4047
2243
8395
2310
-1
1047
7385
8879
3417
884
4805
7143
6662
-1
1353
4464
3826
7652
2571
4837
1565
6452
2182
4089
2285
6091
3043
1648
1405
-1
8239
5581
-1
4369
-1
4897
3517
4666
5569
757
6383
5631
486
5752
4422
5182
1362
4010
2550
